{
  "schema": "module",
  "name": "User",
  "slug": "user",
  "tags": [],
  "releases": [],
  "description": "<Description>",
  "author": "Mauricio Pradilla <mauricio.pradilla@rokk3rlabs.com>",
  "homepage": " ",
  "repo": " ",
  "origin": {
    "author": "Camilo Martinez <camilo@rokk3rlabs.com>",
    "dependencies": {
      "async": "^1.5.2",
      "body-parser": "^1.14.2",
      "cobuild2": "git+https://bitbucket.org/rokk3rlabs/cobuild-npm-module.git",
      "cookie-parser": "^1.4.0",
      "knex": "^0.13.0",
      "lodash": "^4.12.0",
      "should": "^8.2.2",
      "supertest": "^1.2.0"
    },
    "description": "Sample reusable module for new cobuild node stack with relational DB",
    "devDependencies": {
      "chai": "^3.2.0",
      "chai-http": "^1.0.0",
      "mocha": "^2.4.5"
    },
    "homepage": "https://bitbucket.org/rokk3rlabs/cobuild-express-relational-module-boilerplate#readme",
    "initDb": "init/db",
    "initServer": "init/express",
    "license": "ISC",
    "main": "index.js",
    "modulesLocation": "app/modules",
    "name": "cobuild-express-relational-module-boilerplate",
    "private": true,
    "repo": "git@bitbucket.org:rokk3rlabs/cobuild-express-relational-module-boilerplate.git",
    "repository": {
      "type": "git",
      "url": "git+ssh://git@bitbucket.org/rokk3rlabs/cobuild-express-relational-module-boilerplate.git"
    },
    "schema": "boilerplate",
    "scripts": {
      "test": "NODE_PATH=. make test"
    },
    "slug": "cobuild-express-relational-module-boilerplate",
    "tags": [
      "express"
    ],
    "version": "0.1.1",
    "id": 2
  }
}
